<svg width="544" height="330" viewBox="0 0 544 330" fill="none" xmlns="http://www.w3.org/2000/svg">
<line x1="8.88892" y1="253.889" x2="543.333" y2="253.889" stroke="black" stroke-width="1.11111"/>
<g clip-path="url(#clip0)">
<path d="M293.413 191.792V166.504H474.225V191.792V278.69C474.225 280.628 472.654 282.198 470.716 282.198H443.437C441.499 282.198 439.929 280.628 439.929 278.69V247.414C439.929 216.425 414.807 191.304 383.819 191.304C352.83 191.304 327.709 216.425 327.709 247.414V278.69C327.709 280.628 326.138 282.198 324.201 282.198H296.921C294.983 282.198 293.413 280.628 293.413 278.69V191.792Z" fill="black" stroke="black" stroke-width="0.976331"/>
<path d="M219.901 262.037L219.901 262.037C220.109 262.605 219.689 263.208 219.083 263.208H205.426C195.956 263.208 188.278 255.53 188.278 246.06V146.348V123.631C188.278 91.1175 214.636 64.7601 247.149 64.7601H269.866H426.447C465.573 64.7601 497.291 96.4774 497.291 135.603V191.794V278.692C497.291 280.629 495.721 282.2 493.783 282.2H466.504C464.566 282.2 462.995 280.629 462.995 278.692V270.478C462.995 226.753 427.548 191.306 383.823 191.306C340.097 191.306 304.65 226.753 304.65 270.478V278.693C304.65 280.631 303.08 282.201 301.142 282.201H273.863C271.925 282.201 270.354 280.631 270.354 278.693V191.795V176.294C270.354 166.978 262.803 159.427 253.487 159.427C226.674 159.427 204.938 181.163 204.938 207.976V246.06V246.548H205.426H219.009C219.628 246.548 220.049 247.174 219.817 247.747L217.381 253.757C217.381 253.757 217.381 253.757 217.381 253.757C217.208 254.182 217.2 254.655 217.358 255.086L217.816 254.918L217.358 255.086L219.901 262.037Z" fill="white" stroke="black" stroke-width="0.976331"/>
<path d="M284.312 147.723H278.823C274.145 147.723 270.353 143.931 270.353 139.253V65.1997C270.353 60.5218 274.145 56.7295 278.823 56.7295H284.312C309.439 56.7295 329.809 77.0992 329.809 102.227C329.808 127.353 309.439 147.723 284.312 147.723Z" fill="white" stroke="black" stroke-width="0.976331"/>
<path d="M278.825 138.793C274.147 138.793 270.354 135.001 270.354 130.323V56.2692C270.354 51.5914 274.147 47.7991 278.825 47.7991C303.952 47.7991 324.322 68.1687 324.322 93.2962C324.322 118.424 303.951 138.793 278.825 138.793Z" fill="black" stroke="black" stroke-width="0.976331"/>
<path d="M221.023 114.128C223.833 114.128 226.111 111.851 226.111 109.041C226.111 106.231 223.833 103.954 221.023 103.954C218.214 103.954 215.936 106.231 215.936 109.041C215.936 111.851 218.214 114.128 221.023 114.128Z" fill="black"/>
<path d="M205.426 212.472C203.875 216.351 197.413 231.414 188.399 237.305C188.199 237.435 187.992 237.552 187.79 237.679V246.057C187.79 247.115 187.889 248.15 188.067 249.157C188.389 248.988 188.71 248.819 189.042 248.644C190.436 247.911 192.168 247 193.965 245.821C198.046 243.146 201.952 239.414 205.426 234.972V212.472Z" fill="black"/>
<path d="M206.263 202.161L206.243 202.215L205.785 202.046C206.243 202.215 206.243 202.215 206.243 202.215L206.243 202.216L206.242 202.219L206.238 202.23L206.222 202.272C206.208 202.309 206.187 202.364 206.16 202.435C206.106 202.577 206.025 202.787 205.918 203.055C205.704 203.591 205.388 204.363 204.977 205.311C204.154 207.206 202.947 209.803 201.414 212.615C198.359 218.218 193.964 224.753 188.663 228.217C183.765 231.418 178.236 233.462 172.233 234.294C169.717 234.643 167.961 236.965 168.309 239.481C168.437 240.402 169.083 241.247 170.007 241.957C170.923 242.662 172.05 243.183 173 243.47C175.116 244.109 177.255 243.882 179.785 243.006C182.328 242.126 185.212 240.61 188.813 238.715L188.822 238.71C190.215 237.977 191.924 237.078 193.695 235.916L193.695 235.916C203.676 229.373 212.69 216.468 216.597 202.035C216.597 202.035 216.597 202.035 216.597 202.035L217.069 202.162C217.904 199.076 218.471 195.69 219.606 188.923L219.609 188.906C220.746 182.122 221.453 176.431 221.891 172.417L206.263 202.161ZM206.263 202.161L206.27 202.105C207.686 190.595 213.218 180.362 221.345 172.91L206.263 202.161Z" fill="#ECECEC" stroke="black" stroke-width="0.976331"/>
<path d="M225.559 135.765C225.289 135.765 225.07 135.984 225.07 136.253C225.07 136.523 225.289 136.741 225.559 136.741C225.828 136.741 226.047 136.523 226.047 136.253C226.047 135.984 225.828 135.765 225.559 135.765Z" fill="#149E4C"/>
<path d="M213.254 144.163C212.984 144.163 212.766 144.382 212.766 144.651C212.766 144.921 212.984 145.14 213.254 145.14C213.523 145.14 213.742 144.921 213.742 144.651C213.742 144.382 213.523 144.163 213.254 144.163Z" fill="#149E4C"/>
<path d="M214.85 141.489L209.771 132.69C209.683 132.538 209.522 132.445 209.348 132.445C209.173 132.445 209.012 132.538 208.925 132.69L203.846 141.489C203.292 142.448 203 143.542 203 144.652C203 148.152 205.848 151 209.348 151C212.848 151 215.695 148.152 215.695 144.652C215.695 143.542 215.403 142.448 214.85 141.489ZM209.348 150.023C206.386 150.023 203.977 147.613 203.977 144.652C203.977 143.713 204.224 142.788 204.691 141.977L209.348 133.91L214.004 141.977C214.472 142.788 214.719 143.713 214.719 144.652C214.719 147.614 212.309 150.023 209.348 150.023Z" fill="#149E4C"/>
<path d="M213.002 146.116C212.766 145.985 212.469 146.07 212.338 146.306C211.733 147.394 210.588 148.07 209.348 148.07C209.078 148.07 208.859 148.288 208.859 148.558C208.859 148.828 209.078 149.046 209.348 149.046C210.942 149.046 212.415 148.178 213.192 146.78C213.322 146.544 213.237 146.247 213.002 146.116Z" fill="#149E4C"/>
<path d="M227.285 133.58L223.052 126.245C222.965 126.094 222.803 126.001 222.629 126.001C222.454 126.001 222.293 126.094 222.206 126.245L217.973 133.58C217.505 134.39 217.258 135.314 217.258 136.254C217.258 139.215 219.667 141.625 222.629 141.625C225.591 141.625 228 139.215 228 136.254C228 135.314 227.753 134.39 227.285 133.58ZM222.629 140.648C220.206 140.648 218.234 138.677 218.234 136.254C218.234 135.485 218.436 134.73 218.818 134.068L222.629 127.466L226.439 134.068C226.821 134.73 227.023 135.485 227.023 136.254C227.023 138.677 225.052 140.648 222.629 140.648Z" fill="#149E4C"/>
<path d="M225.213 137.715C225.003 137.545 224.696 137.577 224.526 137.787C224.059 138.364 223.367 138.694 222.628 138.694C222.359 138.694 222.14 138.913 222.14 139.183C222.14 139.452 222.359 139.671 222.628 139.671C223.663 139.671 224.631 139.208 225.285 138.402C225.455 138.192 225.422 137.885 225.213 137.715Z" fill="#149E4C"/>
</g>
<path d="M49.1159 91.0639C47.2288 91.0639 45.6112 90.621 44.2632 89.7351C42.9345 88.8493 42.0006 87.6362 41.4614 86.0956L43.7722 84.7669C44.5617 87.2125 46.3622 88.4353 49.1737 88.4353C50.5602 88.4353 51.6193 88.1561 52.351 87.5977C53.0828 87.02 53.4487 86.2593 53.4487 85.3157C53.4487 84.3529 53.0828 83.6308 52.351 83.1494C51.6193 82.6679 50.3965 82.1576 48.6826 81.6185C47.8354 81.3489 47.1903 81.137 46.7473 80.983C46.3044 80.8097 45.746 80.5593 45.072 80.232C44.4173 79.8853 43.9262 79.5387 43.5989 79.1921C43.2715 78.8262 42.973 78.3544 42.7034 77.7767C42.4531 77.199 42.3279 76.5443 42.3279 75.8126C42.3279 74.0602 42.9442 72.6737 44.1766 71.6531C45.409 70.6133 46.911 70.0933 48.6826 70.0933C50.281 70.0933 51.6674 70.4977 52.8421 71.3065C54.036 72.1153 54.9314 73.184 55.5284 74.5127L53.2754 75.8126C52.4088 73.7328 50.8779 72.693 48.6826 72.693C47.585 72.693 46.6992 72.9626 46.0252 73.5018C45.3512 74.0409 45.0142 74.7727 45.0142 75.697C45.0142 76.5828 45.332 77.2568 45.9675 77.719C46.6029 78.1811 47.7006 78.6625 49.2603 79.1632C49.8188 79.3365 50.2136 79.4617 50.4446 79.5387C50.6757 79.6158 51.032 79.7506 51.5134 79.9431C52.0141 80.1357 52.3799 80.2897 52.611 80.4053C52.8421 80.5208 53.1502 80.6845 53.5353 80.8963C53.9397 81.1081 54.2382 81.3103 54.4308 81.5029C54.6233 81.6955 54.8448 81.9362 55.0951 82.225C55.3647 82.4946 55.5573 82.7739 55.6728 83.0627C55.7884 83.3516 55.8846 83.6885 55.9617 84.0737C56.058 84.4396 56.1061 84.8343 56.1061 85.258C56.1061 87.0296 55.461 88.4449 54.1708 89.5041C52.8806 90.5439 51.1956 91.0639 49.1159 91.0639ZM71.5551 88.8686C70.0723 90.3321 68.2718 91.0639 66.1536 91.0639C64.0353 91.0639 62.2348 90.3321 60.7521 88.8686C59.2886 87.4051 58.5568 85.6046 58.5568 83.4671C58.5568 81.3296 59.2886 79.5291 60.7521 78.0656C62.2348 76.6021 64.0353 75.8703 66.1536 75.8703C68.2718 75.8703 70.0723 76.6021 71.5551 78.0656C73.0378 79.5291 73.7792 81.3296 73.7792 83.4671C73.7792 85.6046 73.0378 87.4051 71.5551 88.8686ZM66.1536 88.6086C67.5978 88.6086 68.811 88.1176 69.7931 87.1355C70.7752 86.1534 71.2662 84.9306 71.2662 83.4671C71.2662 82.0036 70.7752 80.7808 69.7931 79.7987C68.811 78.8166 67.5978 78.3256 66.1536 78.3256C64.7286 78.3256 63.525 78.8166 62.5429 79.7987C61.5609 80.7808 61.0698 82.0036 61.0698 83.4671C61.0698 84.9306 61.5609 86.1534 62.5429 87.1355C63.525 88.1176 64.7286 88.6086 66.1536 88.6086ZM79.2547 78.6722C80.0828 76.8813 81.5848 75.9859 83.7608 75.9859V78.6144C82.5284 78.5566 81.4693 78.884 80.5835 79.5965C79.6977 80.309 79.2547 81.4548 79.2547 83.0338V90.6884H76.7418V76.2458H79.2547V78.6722ZM88.7327 78.6722C89.5607 76.8813 91.0627 75.9859 93.2387 75.9859V78.6144C92.0063 78.5566 90.9472 78.884 90.0614 79.5965C89.1756 80.309 88.7327 81.4548 88.7327 83.0338V90.6884H86.2197V76.2458H88.7327V78.6722ZM106.089 76.2458H108.775L102.882 91.5838C102.266 93.2206 101.4 94.4627 100.283 95.31C99.1852 96.1765 97.9143 96.5616 96.47 96.4654V94.1257C98.2416 94.2605 99.5414 93.2784 100.369 91.1794L100.629 90.6306L94.3325 76.2458H97.0188L101.929 87.5688L106.089 76.2458ZM113.82 93.5769C111.702 89.3404 110.642 85.0076 110.642 80.5786C110.642 76.1496 111.702 71.8168 113.82 67.5803H116.333C114.215 71.8168 113.155 76.1496 113.155 80.5786C113.155 85.0076 114.215 89.3404 116.333 93.5769H113.82Z" fill="#050A0A"/>
<path d="M0.555556 80.7475C0.555556 104.786 20.0424 124.273 44.0807 124.273H156.543V84.71C156.543 58.4833 135.282 37.2223 109.056 37.2223H44.0807C20.0424 37.2223 0.555556 56.7092 0.555556 80.7475Z" stroke="black" stroke-width="1.11111"/>
<defs>
<clipPath id="clip0">
<rect width="330" height="330" fill="white" transform="translate(167.777)"/>
</clipPath>
</defs>
</svg>
