<svg width="50" height="50" viewBox="0 0 50 50" fill="none" xmlns="http://www.w3.org/2000/svg">
<path opacity="0.12" d="M50 25C50 38.8071 38.8071 50 25 50C11.1929 50 0 38.8071 0 25C0 11.1929 11.1929 0 25 0C38.8071 0 50 11.1929 50 25Z" fill="#149E4C"/>
<path d="M27.3046 14.491L19.3739 22.4218C18.6439 23.1517 17.4603 23.1517 16.7303 22.4218L8.79954 14.491C8.06956 13.761 8.06956 12.5774 8.79954 11.8474L16.7303 3.91659C17.4603 3.18661 18.6439 3.18661 19.3739 3.91659L27.3046 11.8474C28.0347 12.5774 28.0347 13.761 27.3046 14.491Z" fill="white"/>
<path d="M16.6709 3.50175L8.38447 11.7882C7.62178 12.5509 7.62168 13.7876 8.38447 14.5503L16.6709 22.8367C17.4337 23.5995 18.6703 23.5994 19.433 22.8367L27.7194 14.5503C28.4821 13.7876 28.4822 12.5509 27.7194 11.7882L19.433 3.50175C18.6702 2.73896 17.4336 2.73896 16.6709 3.50175ZM19.3074 19.949C18.6141 20.6424 17.4898 20.6425 16.7964 19.949C16.103 19.2557 16.103 18.1314 16.7964 17.438C17.4897 16.7445 18.614 16.7445 19.3074 17.438C20.0009 18.1313 20.0009 19.2556 19.3074 19.949ZM13.7832 14.4247C13.0898 15.1181 11.9656 15.1182 11.2722 14.4247C10.5788 13.7313 10.5788 12.6071 11.2722 11.9137C11.9655 11.2203 13.0897 11.2202 13.7832 11.9137C14.4767 12.6071 14.4766 13.7313 13.7832 14.4247ZM19.3074 14.4247C18.6141 15.1181 17.4898 15.1182 16.7964 14.4247C16.103 13.7313 16.103 12.6071 16.7964 11.9137C17.4897 11.2202 18.614 11.2202 19.3074 11.9137C20.0009 12.6071 20.0009 13.7313 19.3074 14.4247ZM24.8317 14.4247C24.1384 15.1181 23.0142 15.1182 22.3207 14.4247C21.6273 13.7313 21.6273 12.6071 22.3207 11.9137C23.0141 11.2202 24.1383 11.2202 24.8317 11.9137C25.5251 12.6071 25.5251 13.7313 24.8317 14.4247ZM19.3074 8.90048C18.6141 9.59384 17.4898 9.59394 16.7964 8.90048C16.103 8.20712 16.103 7.0829 16.7964 6.38945C17.4897 5.69599 18.614 5.69599 19.3074 6.38945C20.0009 7.0829 20.0009 8.20702 19.3074 8.90048Z" fill="#404040"/>
<path d="M20.9266 21.3432L19.4331 22.8367C18.6703 23.5995 17.4337 23.5995 16.671 22.8367L8.38456 14.5503C7.62176 13.7875 7.62176 12.5509 8.38456 11.7882L9.87811 10.2946C9.11532 11.0574 9.11532 12.2941 9.87811 13.0568L18.1645 21.3432C18.9272 22.1059 20.1639 22.1059 20.9266 21.3432Z" fill="#010818"/>
<path opacity="0.12" d="M48.5777 16.6729L38.9352 40.6158C38.7338 41.1161 38.1648 41.3583 37.6645 41.1568L24.4389 35.8304C23.9387 35.629 23.6965 35.06 23.8979 34.5597L34.6965 7.74624C34.8979 7.24595 35.4669 7.00366 35.9672 7.20513L45.8334 11.1786C46.9616 12.8758 47.8875 14.7186 48.5777 16.6729Z" fill="#149E4C"/>
<path d="M40.1275 37.1149L22.7588 34.4097C22.2259 34.3267 21.8611 33.8274 21.9441 33.2945L26.3927 4.73257C26.4757 4.19966 26.975 3.83492 27.5079 3.91792L44.8767 6.6231C45.4096 6.70611 45.7743 7.20542 45.6913 7.73833L41.2428 36.3002C41.1598 36.8333 40.6605 37.1979 40.1275 37.1149Z" fill="#F7F7F7"/>
<path d="M40.1276 37.1149L26.0396 34.9207C25.5067 34.8377 25.1419 34.3384 25.2249 33.8055L29.6735 5.24354C29.7565 4.71063 30.2558 4.34589 30.7887 4.4289L44.8767 6.62313C45.4096 6.70614 45.7743 7.20546 45.6913 7.73837L41.2428 36.3003C41.1598 36.8333 40.6605 37.1979 40.1276 37.1149Z" fill="white"/>
<path d="M30.4645 7.14586C30.3399 7.94527 29.591 8.49234 28.7916 8.36783C27.9922 8.24332 27.4451 7.49439 27.5696 6.69498C27.6941 5.89556 28.4431 5.34849 29.2425 5.47301C30.0419 5.59762 30.589 6.34654 30.4645 7.14586ZM38.844 32.6653C38.0445 32.5408 37.2956 33.0878 37.1711 33.8873C37.0466 34.6867 37.5937 35.4356 38.3931 35.5601C39.1925 35.6846 39.9414 35.1376 40.0659 34.3381C40.1904 33.5387 39.6434 32.7898 38.844 32.6653Z" fill="#D6D6D6"/>
<path d="M38.2446 24.1601C37.0018 25.0679 35.2584 24.7964 34.3505 23.5536L33.7589 22.7437L35.4582 26.501C35.4839 26.558 35.4735 26.6249 35.4316 26.6714C35.3698 26.74 35.2775 26.7728 35.1863 26.7585L30.5623 26.0383C30.4722 26.0242 30.3951 25.9663 30.3565 25.8837L30.3559 25.8824C30.3289 25.8244 30.3395 25.7558 30.383 25.7088L33.2208 22.6381L32.3864 23.2477C31.1436 24.1555 29.4002 23.884 28.4923 22.6412C27.5845 21.3984 27.8561 19.6551 29.0989 18.7472L34.5767 14.7458C34.6638 14.6821 34.786 14.7012 34.8497 14.7883L38.8511 20.2661C39.7589 21.5088 39.4873 23.2522 38.2446 24.1601Z" fill="#010818"/>
<path d="M30.6008 33.7261C30.6008 41.8997 23.9748 48.5257 15.8011 48.5257C7.62752 48.5257 1.00154 41.8997 1.00154 33.7261C1.00154 25.5525 7.62752 18.9265 15.8011 18.9265C23.9748 18.9265 30.6008 25.5525 30.6008 33.7261Z" fill="#149E4C"/>
<path d="M16.7603 48.4939C16.4431 48.5142 16.1234 48.5256 15.8011 48.5256C7.62743 48.5256 1.00145 41.8996 1.00145 33.726C1.00145 25.5523 7.62743 18.9264 15.8011 18.9264C16.1234 18.9264 16.4431 18.9379 16.7603 18.9581C9.03397 19.4527 2.92 25.8748 2.92 33.7261C2.92 41.5773 9.03397 47.9994 16.7603 48.4939Z" fill="#35975D"/>
<path d="M29.7114 36.0094H21.3133L27.2517 41.9478C26.8214 42.567 26.3319 43.1562 25.7816 43.7066C25.2312 44.257 24.642 44.7464 24.0228 45.1767L18.0844 39.2383V47.6366C17.3422 47.7702 16.5796 47.8407 15.8012 47.8407C15.0228 47.8407 14.2601 47.7702 13.518 47.6366V39.2383L7.5794 45.1768C6.96017 44.7465 6.37101 44.2571 5.82061 43.7067C5.27022 43.1563 4.78077 42.5671 4.3504 41.9479L10.2888 36.0095H1.89073C1.75714 35.2673 1.68663 34.5047 1.68663 33.7263C1.68663 32.9479 1.75714 32.1852 1.89073 31.4431H10.289L4.35059 25.5047C4.78087 24.8855 5.27032 24.2963 5.82081 23.7459C6.3712 23.1955 6.96036 22.7061 7.5796 22.2758L13.518 28.2142V19.816C14.2602 19.6824 15.0228 19.6119 15.8012 19.6119C16.5796 19.6119 17.3423 19.6823 18.0844 19.816V28.2142L24.0228 22.2758C24.642 22.7061 25.2312 23.1955 25.7816 23.7459C26.3319 24.2963 26.8214 24.8855 27.2517 25.5047L21.3133 31.4431H29.7114C29.845 32.1853 29.9155 32.9479 29.9155 33.7263C29.9155 34.5047 29.845 35.2672 29.7114 36.0094Z" fill="white"/>
<path d="M25.8254 33.7261C25.8254 39.2624 21.3374 43.7505 15.801 43.7505C10.2647 43.7505 5.77661 39.2624 5.77661 33.7261C5.77661 28.1898 10.2647 23.7017 15.801 23.7017C21.3374 23.7017 25.8254 28.1898 25.8254 33.7261Z" fill="#16964A"/>
<path d="M10.8601 30.3091V37.1433C10.8601 37.2802 10.7491 37.3912 10.6122 37.3912H9.47909C9.34218 37.3912 9.23114 37.2802 9.23114 37.1433V30.3091C9.23114 30.1722 9.34218 30.0612 9.47909 30.0612H10.6121C10.7491 30.0612 10.8601 30.1722 10.8601 30.3091ZM16.6156 32.4638V34.9886C16.6156 36.338 15.5217 37.432 14.1723 37.432C12.8228 37.432 11.7289 36.338 11.7289 34.9886V32.4638C11.7289 31.1144 12.8228 30.0204 14.1723 30.0204C15.5217 30.0204 16.6156 31.1144 16.6156 32.4638ZM14.9867 32.4638C14.9867 32.014 14.6221 31.6493 14.1723 31.6493C13.7224 31.6493 13.3578 32.014 13.3578 32.4638V34.9886C13.3578 35.4384 13.7224 35.8031 14.1723 35.8031C14.6221 35.8031 14.9867 35.4384 14.9867 34.9886V32.4638ZM22.3711 32.4638V34.9886C22.3711 36.338 21.2771 37.432 19.9277 37.432C18.5783 37.432 17.4844 36.338 17.4844 34.9886V32.4638C17.4844 31.1144 18.5783 30.0204 19.9277 30.0204C21.2771 30.0204 22.3711 31.1144 22.3711 32.4638ZM20.7422 32.4638C20.7422 32.014 20.3775 31.6493 19.9277 31.6493C19.4779 31.6493 19.1133 32.014 19.1133 32.4638V34.9886C19.1133 35.4384 19.4779 35.8031 19.9277 35.8031C20.3775 35.8031 20.7422 35.4384 20.7422 34.9886V32.4638Z" fill="white"/>
</svg>
